<?xml version="1.0" encoding="UTF-8"?>
<testng-results skipped="0" failed="0" ignored="0" total="2" passed="2">
  <reporter-output>
  </reporter-output>
  <suite name="com.safebear.auto.autoTests.LoginTests" duration-ms="12936" started-at="2019-04-17T15:16:33Z" finished-at="2019-04-17T15:16:45Z">
    <groups>
    </groups>
    <test name="Command line test" duration-ms="12936" started-at="2019-04-17T15:16:33Z" finished-at="2019-04-17T15:16:45Z">
      <class name="com.safebear.auto.autoTests.LoginTests">
        <test-method status="PASS" signature="setUp()[pri:0, instance:com.safebear.auto.autoTests.LoginTests@6df97b55]" name="setUp" is-config="true" duration-ms="6052" started-at="2019-04-17T15:16:33Z" finished-at="2019-04-17T15:16:39Z">
          <reporter-output>
          </reporter-output>
        </test-method> <!-- setUp -->
        <test-method status="PASS" signature="loginAsInvalidUserTest()[pri:0, instance:com.safebear.auto.autoTests.LoginTests@6df97b55]" name="loginAsInvalidUserTest" duration-ms="1799" started-at="2019-04-17T15:16:39Z" finished-at="2019-04-17T15:16:40Z">
          <reporter-output>
          </reporter-output>
        </test-method> <!-- loginAsInvalidUserTest -->
        <test-method status="PASS" signature="loginAsValidUserAndCheckMessageTest()[pri:0, instance:com.safebear.auto.autoTests.LoginTests@6df97b55]" name="loginAsValidUserAndCheckMessageTest" duration-ms="1940" started-at="2019-04-17T15:16:40Z" finished-at="2019-04-17T15:16:42Z">
          <reporter-output>
          </reporter-output>
        </test-method> <!-- loginAsValidUserAndCheckMessageTest -->
        <test-method status="PASS" signature="tearDown()[pri:0, instance:com.safebear.auto.autoTests.LoginTests@6df97b55]" name="tearDown" is-config="true" duration-ms="3115" started-at="2019-04-17T15:16:42Z" finished-at="2019-04-17T15:16:45Z">
          <reporter-output>
          </reporter-output>
        </test-method> <!-- tearDown -->
      </class> <!-- com.safebear.auto.autoTests.LoginTests -->
    </test> <!-- Command line test -->
  </suite> <!-- com.safebear.auto.autoTests.LoginTests -->
</testng-results>
